INDEX VERSION 1.130+/home/diego/workspace/samsung/islands/.metadata/.plugins/org.eclipse.jdt.core
3530540584.index
2253745042.index
3512161136.index
3539432263.index
3698083904.index
2669787145.index
3883508318.index
5990989.index
813341167.index
2744878784.index
821608291.index
925982370.index
1089239932.index
502732891.index
3066711521.index
2359322674.index
1628687906.index
2204154863.index
3485262699.index
